{
    "instances":[
        {
            "start":"2020-04-16 18:00:00",
            "target":[301.2696624816035,288.7596602595687,293.2698310258532,303.67121784058764,300.0674506888188,298.631561460062,309.0920562400323,313.703063687272,314.77575525489937,319.84055440371003,335.17558658202097,329.58796862999947,337.0829025099752,338.3786018676836,361.23446021760526,362.42036937126284,348.051344199258,344.8306062973431,349.9595284641494,327.9303174827165,331.2975186441622,338.29311559329165,326.72608363520277,327.90252033526804,300.6511399097033,326.5686614835249,321.6699625696249,320.9810791172543,311.8981892759111,314.58290370771647,332.3937309064089,328.575098429718,342.3610376657053,336.11170867887256,333.27052493784845,369.0859883712485,368.8225444140292,370.79188061438606,375.9508509409104,361.90643792222727,372.96911450119444,372.08625453566486,368.3276165326066,343.6217999754483,332.29925647797444,354.5379945410088,334.33951652331046,326.69080468652714,334.5541979029256,335.3034389439488,336.09769826304847,341.0312960709466,342.7469168327428,345.1926525769659,327.2063298758132,352.2252236326974,359.8159680432241,349.40137240807894,354.9076679552795,376.6508167522544,367.6696467014666,379.088104224607,363.3114502180409,374.8076985981521,354.60872809095275,385.62406023125794,379.019275523637,348.67968748676094,354.16543675256514,361.11815521228823,331.2224534026369,356.6650986916396,336.11277020306426,348.21705669253413,338.58233856662486,345.0848285395684,351.08773420326344,348.39025153562335,348.2010981856399,358.8225070374001,345.69796714143706,361.4118560755161,390.2804078668128,375.45972119137576,370.5689598970397,391.8311029315097,405.59826463986644,405.0323036241909,391.74814341284304,392.6995867726722,363.48790340555735,391.9250836222328,352.0466026123925,362.32757499928516,345.2986328541122,357.6745184078674,339.03561284823707,364.9176959451635,361.96939948862916,362.30965147913076]
        }
    ],
    "configuration":{
        "num_samples":50,
        "output_types":["mean", "quantiles", "samples"],
        "quantiles":["0.1", "0.9"]
    }
}